…
## Parsed with column specification:
## cols(
## A = col_logical()
## )
## Warning: 2092 parsing failures.
## row col expected actual file
## 1 A 1/0/T/F/TRUE/FALSE '~/Data/Sheet_3_data.csv'
## 2 A 1/0/T/F/TRUE/FALSE '~/Data/Sheet_3_data.csv'
## 3 A 1/0/T/F/TRUE/FALSE '~/Data/Sheet_3_data.csv'
## 4 A 1/0/T/F/TRUE/FALSE '~/Data/Sheet_3_data.csv'
## 5 A 1/0/T/F/TRUE/FALSE '~/Data/Sheet_3_data.csv'
## ... ... .................. ...... .........................
## See problems(...) for more details.
## 
## # A tibble: 2,090 x 1
## A    
## <lgl>
## 1 NA   
## 2 NA   
## 3 NA   
## 4 NA   
## 5 NA   
## 6 NA   
## 7 NA   
## 8 NA   
## 9 NA   
## 10 NA   
## # … with 2,080 more rows 
```
…
泰国或高棉的佛教寺或僧院

不像其他 99%的时间(可能是 99.9%)你使用它，tidyverse 在这种情况下不会支持你(但它*有你的[待办事项](https://github.com/tidyverse/readr/milestone/5)，因为它在 TODO 上)。*

你知道谁会支持你吗？基数 R！：

```
read.csv(tfil, sep="\t", fileEncoding = "UCS-2LE", stringsAsFactors=FALSE) %>% 
  as_tibble()
## # A tibble: 2,089 x 14
## Address City Country Index Label Latitude Longitude
## <chr> <chr> <chr> <int> <chr> <dbl> <dbl>
## 1 1627 O… Aubu… United… 1 Payl… 32.6 -85.4
## 2 900 Co… Doth… United… 2 Payl… 31.3 -85.4
## 3 301 Co… Flor… United… 3 Payl… 34.8 -87.6
## 4 304 Ox… Home… United… 4 Payl… 33.5 -86.8
## 5 2000 R… Hoov… United… 5 Payl… 33.4 -86.8
## 6 6140 U… Hunt… United… 6 Payl… 34.7 -86.7
## 7 312 Sc… Mobi… United… 7 Payl… 30.7 -88.2
## 8 3402 B… Mobi… United… 8 Payl… 30.7 -88.1
## 9 5300 H… Mobi… United… 9 Payl… 30.6 -88.2
## 10 6641 A… Mont… United… 10 Payl… 32.4 -86.2
## # … with 2,079 more rows, and 7 more variables:
## # Number.of.Records <int>, State <chr>, Store.Number <int>,
## # Store.count <int>, Zip.code <chr>, State.Usps <chr>,
## # statename <chr> 
```
…
而且，就像在 Google 缓存中为未来的搜索者准备的那样，将这些数据(以及其他更难理解但形式相似的数据)放入 R 的另一种方法是:

```
stri_read_lines(tfil) %>% 
  paste0(collapse="\n") %>% 
  read.csv(text=., sep="\t", stringsAsFactors=FALSE) %>% 
  as_tibble()
## # A tibble: 2,089 x 14
## Address City Country Index Label Latitude Longitude
## <chr> <chr> <chr> <dbl> <chr> <dbl> <dbl>
## 1 1627 O… Aubu… United… 1 Payl… 32.6 -85.4
## 2 900 Co… Doth… United… 2 Payl… 31.3 -85.4
## 3 301 Co… Flor… United… 3 Payl… 34.8 -87.6
## 4 304 Ox… Home… United… 4 Payl… 33.5 -86.8
## 5 2000 R… Hoov… United… 5 Payl… 33.4 -86.8
## 6 6140 U… Hunt… United… 6 Payl… 34.7 -86.7
## 7 312 Sc… Mobi… United… 7 Payl… 30.7 -88.2
## 8 3402 B… Mobi… United… 8 Payl… 30.7 -88.1
## 9 5300 H… Mobi… United… 9 Payl… 30.6 -88.2
## 10 6641 A… Mont… United… 10 Payl… 32.4 -86.2
## # … with 2,079 more rows, and 7 more variables: `Number of
## # Records` <dbl>, State <chr>, `Store Number` <dbl>, `Store
## # count` <dbl>, `Zip code` <chr>, `State Usps` <chr>,
## # statename <chr> 
```
…
