…
我最后做了`install.pkgs(pkgs)`，这很容易，因为我有一个家庭 CRAN mirror，并且使用 macOS(所以二进制软件包安装)。

一个`dbplyr`导入的存在并不意味着一个包实现了一个后端，所以我们必须加载它们的名称空间，看看它们是否有核心“tell”(即它们实现了`sql_translate()`:

```
(map_df(pkgs, ~{
  tibble(
    pkg = .x,
    trans = loadNamespace(.x) %>%
      names() %>%
      keep(stri_detect_fixed, "sql_translate")
  )
}) -> xdf)
## # A tibble: 28 x 2
## pkg trans
## <chr> <chr>
## 1 bigrquery sql_translate_env.BigQueryConnection
## 2 civis sql_translate_env.CivisConnection
## 3 dbplyr sql_translate_env.ACCESS
## 4 dbplyr sql_translate_env.Oracle
## 5 dbplyr sql_translate_env.SQLiteConnection
## 6 dbplyr sql_translate_env.Impala
## 7 dbplyr sql_translate_env.OdbcConnection
## 8 dbplyr sql_translate_env.MySQLConnection
## 9 dbplyr sql_translate_env.PqConnection
## 10 dbplyr sql_translate_env.PostgreSQLConnection
## # … with 18 more rows 
```
…
      map_df(fs, ~{
        tibble(ƒ = .x, src = paste0(as.character(body(part[[.x]])), collapse = "; ")) %>% # this gets the body of the function
          filter(!stri_detect_fixed(src, "stop(")) %>%
          filter(stri_detect_regex(ƒ, "[[:alpha:]]")) %>% # and we rly don't care about maths
          select(-src)
      })
    })
  })) %>%
  unnest(ƒ) %>%
  mutate(trans = stri_replace_first_fixed(trans, "sql_translate_env.", "")) -> xdf)
## # A tibble: 1,318 x 3
## pkg trans ƒ
## <chr> <chr> <chr>
## 1 bigrquery BigQueryConnection median
## 2 bigrquery BigQueryConnection gsub
## 3 bigrquery BigQueryConnection as.logical
## 4 bigrquery BigQueryConnection is.null
## 5 bigrquery BigQueryConnection case_when
## 6 bigrquery BigQueryConnection is.na
## 7 bigrquery BigQueryConnection if_else
## 8 bigrquery BigQueryConnection str_replace_all
## 9 bigrquery BigQueryConnection as.integer
## 10 bigrquery BigQueryConnection as.character
## # … with 1,308 more rows 
```
…
